[
    {"server_command": ["@SERVER@", "--http",
                 "--x509keyfile", "tests/serverX509Key.pem",
                 "--x509certfile", "tests/serverX509Cert.pem",
                 "--x509keyfile", "tests/serverRSAPSSKey.pem",
                 "--x509certfile", "tests/serverRSAPSSCert.pem",
                 "--x509keyfile", "../../../certs/ecc256.pem",
                 "--x509certfile", "../../../certs/cert-ecc256.pem",
                 "--debug=3",
                 "--priority=@PRIORITY@",
                 "--disable-client-cert", "--port=@PORT@"],
     "server_hostname": "localhost",
     "server_port": @PORT@,
     "tests" : [
	 {"name" : "test-tls13-legacy-version.py",
	  "arguments": ["-p", "@PORT@"]},
	 {"name" : "test-tls13-empty-alert.py",
	  "arguments": ["-p", "@PORT@"]},
	 {"name" : "test-tls13-hrr.py",
	  "arguments": ["-p", "@PORT@"]},
	 {"name" : "test-tls13-nociphers.py",
	  "arguments": ["-p", "@PORT@"]},
	 {"name" : "test-tls13-pkcs-signature.py",
	  "arguments": ["-p", "@PORT@"]},
	 {"name" : "test-tls13-rsa-signatures.py",
	  "arguments": ["-p", "@PORT@", "-b"]},
	 {"name" : "test-tls13-rsapss-signatures.py",
	  "arguments": ["-p", "@PORT@", "-b"]},
	 {"name" : "test-tls13-conversation.py",
	  "arguments": ["-p", "@PORT@"]},
	 {"name" : "test-tls13-empty-alert.py",
	  "arguments": ["-p", "@PORT@"]},
	 {"name" : "test-tls13-legacy-version.py",
	  "arguments": ["-p", "@PORT@"]},
	 {"name" : "test-tls13-nociphers.py",
	  "arguments": ["-p", "@PORT@"]},
	 {"name" : "test-tls13-pkcs-signature.py",
	  "arguments": ["-p", "@PORT@"]},
	 {"name" : "test-tls13-record-padding.py",
	  "arguments": ["-p", "@PORT@"]},
	 {"name" : "test-tls13-signature-algorithms.py",
	  "arguments": ["-p", "@PORT@"]},
	 {"name" : "test-tls13-version-negotiation.py",
	  "arguments": ["-p", "@PORT@"]},
	 {"name" : "test-tls13-zero-length-data.py",
	  "arguments": ["-p", "@PORT@"]},
	 {"name" : "test-tls13-finished.py",
	  "commoent" : "the disabled tests timeout very often due to slow tls-fuzzer implementation",
	  "arguments": ["-p", "@PORT@", "-n", "5",
			"-e", "padding - cipher TLS_AES_128_GCM_SHA256, pad_byte 0, pad_left 0, pad_right 16777183",
			"-e", "padding - cipher TLS_AES_256_GCM_SHA384, pad_byte 0, pad_left 0, pad_right 16777167"]},
	 {"name" : "test-tls13-count-tickets.py",
	  "arguments": ["-p", "@PORT@", "-t", "1"]},
	 {"name" : "test-tls13-0rtt-garbage.py",
	  "arguments": ["-p", "@PORT@"]},
	 {"name" : "test-tls13-ffdhe-sanity.py",
	  "arguments": ["-p", "@PORT@"]},
	 {"name" : "test-tls13-session-resumption.py",
	  "arguments": ["-p", "@PORT@"]},
	 {"name" : "test-tls13-unrecognised-groups.py",
	  "arguments": ["-p", "@PORT@"]}
     ]
    }
]
